clust_stand_err_final
…
mw_merge %>%
  distinct(ELS_ID) # 131

## # A tibble: 131 x 1
## # Groups:   ELS_ID [131]
##    ELS_ID
##    <fct> 
##  1 2     
##  2 5     
##  3 12    
##  4 13    
##  5 14    
##  6 20    
##  7 21    
##  8 24    
##  9 26    
## 10 36    
## #  with 121 more rows
…
5 Summary

mw_merge_sum_ema <-
  mw_merge_order_dem_all %>%
  distinct(ELS_ID)
# 106 IDs have EMA data (sleep + affect); 

mw_merge_order_dem_all%>%
  group_by(ELS_ID) %>%
  summarize(
    daymax = length(day_id)
  )

## # A tibble: 106 x 2
##    ELS_ID daymax
##    <fct>   <int>
##  1 2          16
##  2 5          28
##  3 6          39
##  4 13         12
##  5 14         25
##  6 16         37
##  7 17         42
##  8 20         25
##  9 21         15
## 10 22         39
## #  with 96 more rows
…
mw_merge_order_dem_all2 %>%
  group_by(ELS_ID) %>%
  summarize(
    daymax = length(day_id)
  )

## # A tibble: 106 x 2
##    ELS_ID daymax
##    <fct>   <int>
##  1 2          16
##  2 5          28
##  3 6          39
##  4 13         12
##  5 14         25
##  6 16         37
##  7 17         42
##  8 20         25
##  9 21         15
## 10 22         39
## #  with 96 more rows
…
# merging RR with the daily emo df
emaact <-
  left_join(
    act,
    mw_emo_filt_merge,
    by = c("ELS_ID", "triggerdate") 
  ) %>%
  drop_na(efficiency)

emaact %>%
  distinct(ELS_ID)

## # A tibble: 87 x 1
##    ELS_ID
##    <fct> 
##  1 2     
##  2 5     
##  3 14    
##  4 20    
##  5 21    
##  6 47    
##  7 50    
##  8 58    
##  9 59    
## 10 69    
## #  with 77 more rows

emaact_all <-
  left_join(
    emaact,
    demoact,
    by = "ELS_ID"
  )

emaact_all %>%
  distinct(ELS_ID)

## # A tibble: 87 x 1
##    ELS_ID
##    <fct> 
##  1 2     
##  2 5     
##  3 14    
##  4 20    
##  5 21    
##  6 47    
##  7 50    
##  8 58    
##  9 59    
## 10 69    
## #  with 77 more rows
…
